{
  "formatVersion": 1,
  "database": {
    "version": 11,
    "identityHash": "332ae95a463a3490d529ade58dbf3e1d",
    "entities": [
      {
        "tableName": "AttestationRoom",
        "createSql": "CREATE TABLE IF NOT EXISTS `${TABLE_NAME}` (`uid` TEXT NOT NULL, `encrypted_value` TEXT NOT NULL, PRIMARY KEY(`uid`))",
        "fields": [
          {
            "fieldPath": "uid",
            "columnName": "uid",
            "affinity": "TEXT",
            "notNull": true
          },
          {
            "fieldPath": "encryptedValue",
            "columnName": "encrypted_value",
            "affinity": "TEXT",
            "notNull": true
          }
        ],
        "primaryKey": {
          "columnNames": [
            "uid"
          ],
          "autoGenerate": false
        },
        "indices": [],
        "foreignKeys": []
      },
      {
        "tableName": "CertificateRoom",
        "createSql": "CREATE TABLE IF NOT EXISTS `${TABLE_NAME}` (`uid` TEXT NOT NULL, `encrypted_value` TEXT NOT NULL, PRIMARY KEY(`uid`))",
        "fields": [
          {
            "fieldPath": "uid",
            "columnName": "uid",
            "affinity": "TEXT",
            "notNull": true
          },
          {
            "fieldPath": "encryptedValue",
            "columnName": "encrypted_value",
            "affinity": "TEXT",
            "notNull": true
          }
        ],
        "primaryKey": {
          "columnNames": [
            "uid"
          ],
          "autoGenerate": false
        },
        "indices": [],
        "foreignKeys": []
      },
      {
        "tableName": "VenueRoom",
        "createSql": "CREATE TABLE IF NOT EXISTS `${TABLE_NAME}` (`uid` TEXT NOT NULL, `encrypted_value` TEXT NOT NULL, PRIMARY KEY(`uid`))",
        "fields": [
          {
            "fieldPath": "uid",
            "columnName": "uid",
            "affinity": "TEXT",
            "notNull": true
          },
          {
            "fieldPath": "encryptedValue",
            "columnName": "encrypted_value",
            "affinity": "TEXT",
            "notNull": true
          }
        ],
        "primaryKey": {
          "columnNames": [
            "uid"
          ],
          "autoGenerate": false
        },
        "indices": [],
        "foreignKeys": []
      },
      {
        "tableName": "ActivityPassRoom",
        "createSql": "CREATE TABLE IF NOT EXISTS `${TABLE_NAME}` (`uid` TEXT NOT NULL, `encrypted_value` TEXT NOT NULL, `expire_at` INTEGER NOT NULL, `root_uid` TEXT NOT NULL, PRIMARY KEY(`uid`), FOREIGN KEY(`root_uid`) REFERENCES `CertificateRoom`(`uid`) ON UPDATE NO ACTION ON DELETE CASCADE )",
        "fields": [
          {
            "fieldPath": "uid",
            "columnName": "uid",
            "affinity": "TEXT",
            "notNull": true
          },
          {
            "fieldPath": "encryptedValue",
            "columnName": "encrypted_value",
            "affinity": "TEXT",
            "notNull": true
          },
          {
            "fieldPath": "expireAt",
            "columnName": "expire_at",
            "affinity": "INTEGER",
            "notNull": true
          },
          {
            "fieldPath": "rootUid",
            "columnName": "root_uid",
            "affinity": "TEXT",
            "notNull": true
          }
        ],
        "primaryKey": {
          "columnNames": [
            "uid"
          ],
          "autoGenerate": false
        },
        "indices": [
          {
            "name": "index_ActivityPassRoom_root_uid",
            "unique": false,
            "columnNames": [
              "root_uid"
            ],
            "orders": [],
            "createSql": "CREATE INDEX IF NOT EXISTS `index_ActivityPassRoom_root_uid` ON `${TABLE_NAME}` (`root_uid`)"
          }
        ],
        "foreignKeys": [
          {
            "table": "CertificateRoom",
            "onDelete": "CASCADE",
            "onUpdate": "NO ACTION",
            "columns": [
              "root_uid"
            ],
            "referencedColumns": [
              "uid"
            ]
          }
        ]
      },
      {
        "tableName": "KeyFigureRoom",
        "createSql": "CREATE TABLE IF NOT EXISTS `${TABLE_NAME}` (`labelKey` TEXT NOT NULL, `index` INTEGER NOT NULL, `category` TEXT NOT NULL, `valueGlobalToDisplay` TEXT NOT NULL, `valueGlobal` REAL, `isFeatured` INTEGER NOT NULL, `isHighlighted` INTEGER, `extractDateS` INTEGER NOT NULL, `displayOnSameChart` INTEGER NOT NULL, `limitLine` REAL, `chartType` TEXT NOT NULL, `magnitude` INTEGER NOT NULL, `figureType` TEXT, PRIMARY KEY(`labelKey`))",
        "fields": [
          {
            "fieldPath": "labelKey",
            "columnName": "labelKey",
            "affinity": "TEXT",
            "notNull": true
          },
          {
            "fieldPath": "index",
            "columnName": "index",
            "affinity": "INTEGER",
            "notNull": true
          },
          {
            "fieldPath": "category",
            "columnName": "category",
            "affinity": "TEXT",
            "notNull": true
          },
          {
            "fieldPath": "valueGlobalToDisplay",
            "columnName": "valueGlobalToDisplay",
            "affinity": "TEXT",
            "notNull": true
          },
          {
            "fieldPath": "valueGlobal",
            "columnName": "valueGlobal",
            "affinity": "REAL",
            "notNull": false
          },
          {
            "fieldPath": "isFeatured",
            "columnName": "isFeatured",
            "affinity": "INTEGER",
            "notNull": true
          },
          {
            "fieldPath": "isHighlighted",
            "columnName": "isHighlighted",
            "affinity": "INTEGER",
            "notNull": false
          },
          {
            "fieldPath": "extractDateS",
            "columnName": "extractDateS",
            "affinity": "INTEGER",
            "notNull": true
          },
          {
            "fieldPath": "displayOnSameChart",
            "columnName": "displayOnSameChart",
            "affinity": "INTEGER",
            "notNull": true
          },
          {
            "fieldPath": "limitLine",
            "columnName": "limitLine",
            "affinity": "REAL",
            "notNull": false
          },
          {
            "fieldPath": "chartType",
            "columnName": "chartType",
            "affinity": "TEXT",
            "notNull": true
          },
          {
            "fieldPath": "magnitude",
            "columnName": "magnitude",
            "affinity": "INTEGER",
            "notNull": true
          },
          {
            "fieldPath": "figureType",
            "columnName": "figureType",
            "affinity": "TEXT",
            "notNull": false
          }
        ],
        "primaryKey": {
          "columnNames": [
            "labelKey"
          ],
          "autoGenerate": false
        },
        "indices": [],
        "foreignKeys": []
      },
      {
        "tableName": "KeyFigureFavoriteRoom",
        "createSql": "CREATE TABLE IF NOT EXISTS `${TABLE_NAME}` (`labelKeyFigure` TEXT NOT NULL, `isFavorite` INTEGER NOT NULL, `favoriteOrder` REAL NOT NULL DEFAULT 0, PRIMARY KEY(`labelKeyFigure`))",
        "fields": [
          {
            "fieldPath": "labelKeyFigure",
            "columnName": "labelKeyFigure",
            "affinity": "TEXT",
            "notNull": true
          },
          {
            "fieldPath": "isFavorite",
            "columnName": "isFavorite",
            "affinity": "INTEGER",
            "notNull": true
          },
          {
            "fieldPath": "favoriteOrder",
            "columnName": "favoriteOrder",
            "affinity": "REAL",
            "notNull": true,
            "defaultValue": "0"
          }
        ],
        "primaryKey": {
          "columnNames": [
            "labelKeyFigure"
          ],
          "autoGenerate": false
        },
        "indices": [],
        "foreignKeys": []
      },
      {
        "tableName": "DepartmentKeyFigureRoom",
        "createSql": "CREATE TABLE IF NOT EXISTS `${TABLE_NAME}` (`labelKeyFigure` TEXT NOT NULL, `dptNb` TEXT NOT NULL, `dptLabel` TEXT NOT NULL, `extractDateS` INTEGER NOT NULL, `value` REAL NOT NULL, `valueToDisplay` TEXT, `labelAndDptNb` TEXT NOT NULL, PRIMARY KEY(`labelAndDptNb`), FOREIGN KEY(`labelKeyFigure`) REFERENCES `KeyFigureRoom`(`labelKey`) ON UPDATE NO ACTION ON DELETE CASCADE )",
        "fields": [
          {
            "fieldPath": "labelKeyFigure",
            "columnName": "labelKeyFigure",
            "affinity": "TEXT",
            "notNull": true
          },
          {
            "fieldPath": "dptNb",
            "columnName": "dptNb",
            "affinity": "TEXT",
            "notNull": true
          },
          {
            "fieldPath": "dptLabel",
            "columnName": "dptLabel",
            "affinity": "TEXT",
            "notNull": true
          },
          {
            "fieldPath": "extractDateS",
            "columnName": "extractDateS",
            "affinity": "INTEGER",
            "notNull": true
          },
          {
            "fieldPath": "value",
            "columnName": "value",
            "affinity": "REAL",
            "notNull": true
          },
          {
            "fieldPath": "valueToDisplay",
            "columnName": "valueToDisplay",
            "affinity": "TEXT",
            "notNull": false
          },
          {
            "fieldPath": "labelAndDptNb",
            "columnName": "labelAndDptNb",
            "affinity": "TEXT",
            "notNull": true
          }
        ],
        "primaryKey": {
          "columnNames": [
            "labelAndDptNb"
          ],
          "autoGenerate": false
        },
        "indices": [
          {
            "name": "index_DepartmentKeyFigureRoom_labelKeyFigure",
            "unique": false,
            "columnNames": [
              "labelKeyFigure"
            ],
            "orders": [],
            "createSql": "CREATE INDEX IF NOT EXISTS `index_DepartmentKeyFigureRoom_labelKeyFigure` ON `${TABLE_NAME}` (`labelKeyFigure`)"
          }
        ],
        "foreignKeys": [
          {
            "table": "KeyFigureRoom",
            "onDelete": "CASCADE",
            "onUpdate": "NO ACTION",
            "columns": [
              "labelKeyFigure"
            ],
            "referencedColumns": [
              "labelKey"
            ]
          }
        ]
      },
      {
        "tableName": "KeyFigureSeriesItemRoom",
        "createSql": "CREATE TABLE IF NOT EXISTS `${TABLE_NAME}` (`date` INTEGER NOT NULL, `value` REAL NOT NULL, `serieType` TEXT NOT NULL, `labelKeyFigure` TEXT, `labelAndDptNb` TEXT, `id` INTEGER PRIMARY KEY AUTOINCREMENT NOT NULL, FOREIGN KEY(`labelKeyFigure`) REFERENCES `KeyFigureRoom`(`labelKey`) ON UPDATE NO ACTION ON DELETE CASCADE , FOREIGN KEY(`labelAndDptNb`) REFERENCES `DepartmentKeyFigureRoom`(`labelAndDptNb`) ON UPDATE NO ACTION ON DELETE CASCADE )",
        "fields": [
          {
            "fieldPath": "date",
            "columnName": "date",
            "affinity": "INTEGER",
            "notNull": true
          },
          {
            "fieldPath": "value",
            "columnName": "value",
            "affinity": "REAL",
            "notNull": true
          },
          {
            "fieldPath": "serieType",
            "columnName": "serieType",
            "affinity": "TEXT",
            "notNull": true
          },
          {
            "fieldPath": "labelKeyFigure",
            "columnName": "labelKeyFigure",
            "affinity": "TEXT",
            "notNull": false
          },
          {
            "fieldPath": "labelAndDptNb",
            "columnName": "labelAndDptNb",
            "affinity": "TEXT",
            "notNull": false
          },
          {
            "fieldPath": "id",
            "columnName": "id",
            "affinity": "INTEGER",
            "notNull": true
          }
        ],
        "primaryKey": {
          "columnNames": [
            "id"
          ],
          "autoGenerate": true
        },
        "indices": [],
        "foreignKeys": [
          {
            "table": "KeyFigureRoom",
            "onDelete": "CASCADE",
            "onUpdate": "NO ACTION",
            "columns": [
              "labelKeyFigure"
            ],
            "referencedColumns": [
              "labelKey"
            ]
          },
          {
            "table": "DepartmentKeyFigureRoom",
            "onDelete": "CASCADE",
            "onUpdate": "NO ACTION",
            "columns": [
              "labelAndDptNb"
            ],
            "referencedColumns": [
              "labelAndDptNb"
            ]
          }
        ]
      },
      {
        "tableName": "BlacklistPrefixRoom",
        "createSql": "CREATE TABLE IF NOT EXISTS `${TABLE_NAME}` (`prefix` TEXT NOT NULL, PRIMARY KEY(`prefix`))",
        "fields": [
          {
            "fieldPath": "prefix",
            "columnName": "prefix",
            "affinity": "TEXT",
            "notNull": true
          }
        ],
        "primaryKey": {
          "columnNames": [
            "prefix"
          ],
          "autoGenerate": false
        },
        "indices": [],
        "foreignKeys": []
      },
      {
        "tableName": "InfoCenterEntryTagCrossRefRoom",
        "createSql": "CREATE TABLE IF NOT EXISTS `${TABLE_NAME}` (`infoCenterEntryId` TEXT NOT NULL, `tagLabelKey` TEXT NOT NULL, PRIMARY KEY(`infoCenterEntryId`, `tagLabelKey`))",
        "fields": [
          {
            "fieldPath": "infoCenterEntryId",
            "columnName": "infoCenterEntryId",
            "affinity": "TEXT",
            "notNull": true
          },
          {
            "fieldPath": "tagLabelKey",
            "columnName": "tagLabelKey",
            "affinity": "TEXT",
            "notNull": true
          }
        ],
        "primaryKey": {
          "columnNames": [
            "infoCenterEntryId",
            "tagLabelKey"
          ],
          "autoGenerate": false
        },
        "indices": [
          {
            "name": "index_InfoCenterEntryTagCrossRefRoom_tagLabelKey",
            "unique": false,
            "columnNames": [
              "tagLabelKey"
            ],
            "orders": [],
            "createSql": "CREATE INDEX IF NOT EXISTS `index_InfoCenterEntryTagCrossRefRoom_tagLabelKey` ON `${TABLE_NAME}` (`tagLabelKey`)"
          }
        ],
        "foreignKeys": []
      },
      {
        "tableName": "InfoCenterEntryRoom",
        "createSql": "CREATE TABLE IF NOT EXISTS `${TABLE_NAME}` (`infoCenterEntryId` TEXT NOT NULL, `titleKey` TEXT NOT NULL, `descriptionKey` TEXT NOT NULL, `buttonLabelKey` TEXT, `urlKey` TEXT, `timestamp` INTEGER NOT NULL, PRIMARY KEY(`infoCenterEntryId`))",
        "fields": [
          {
            "fieldPath": "infoCenterEntryId",
            "columnName": "infoCenterEntryId",
            "affinity": "TEXT",
            "notNull": true
          },
          {
            "fieldPath": "titleKey",
            "columnName": "titleKey",
            "affinity": "TEXT",
            "notNull": true
          },
          {
            "fieldPath": "descriptionKey",
            "columnName": "descriptionKey",
            "affinity": "TEXT",
            "notNull": true
          },
          {
            "fieldPath": "buttonLabelKey",
            "columnName": "buttonLabelKey",
            "affinity": "TEXT",
            "notNull": false
          },
          {
            "fieldPath": "urlKey",
            "columnName": "urlKey",
            "affinity": "TEXT",
            "notNull": false
          },
          {
            "fieldPath": "timestamp",
            "columnName": "timestamp",
            "affinity": "INTEGER",
            "notNull": true
          }
        ],
        "primaryKey": {
          "columnNames": [
            "infoCenterEntryId"
          ],
          "autoGenerate": false
        },
        "indices": [],
        "foreignKeys": []
      },
      {
        "tableName": "InfoCenterLabelRoom",
        "createSql": "CREATE TABLE IF NOT EXISTS `${TABLE_NAME}` (`infoCenterLabelId` TEXT NOT NULL, `label` TEXT NOT NULL, PRIMARY KEY(`infoCenterLabelId`))",
        "fields": [
          {
            "fieldPath": "infoCenterLabelId",
            "columnName": "infoCenterLabelId",
            "affinity": "TEXT",
            "notNull": true
          },
          {
            "fieldPath": "label",
            "columnName": "label",
            "affinity": "TEXT",
            "notNull": true
          }
        ],
        "primaryKey": {
          "columnNames": [
            "infoCenterLabelId"
          ],
          "autoGenerate": false
        },
        "indices": [],
        "foreignKeys": []
      },
      {
        "tableName": "InfoCenterTagRoom",
        "createSql": "CREATE TABLE IF NOT EXISTS `${TABLE_NAME}` (`tagLabelKey` TEXT NOT NULL, `colorCode` TEXT NOT NULL, PRIMARY KEY(`tagLabelKey`))",
        "fields": [
          {
            "fieldPath": "tagLabelKey",
            "columnName": "tagLabelKey",
            "affinity": "TEXT",
            "notNull": true
          },
          {
            "fieldPath": "colorCode",
            "columnName": "colorCode",
            "affinity": "TEXT",
            "notNull": true
          }
        ],
        "primaryKey": {
          "columnNames": [
            "tagLabelKey"
          ],
          "autoGenerate": false
        },
        "indices": [],
        "foreignKeys": []
      },
      {
        "tableName": "DepartmentKeyFigureMapRoom",
        "createSql": "CREATE TABLE IF NOT EXISTS `${TABLE_NAME}` (`labelAndDptNb` TEXT NOT NULL, `labelKey` TEXT NOT NULL, `dptNb` TEXT NOT NULL, `dptLabel` TEXT NOT NULL, PRIMARY KEY(`labelAndDptNb`))",
        "fields": [
          {
            "fieldPath": "labelAndDptNb",
            "columnName": "labelAndDptNb",
            "affinity": "TEXT",
            "notNull": true
          },
          {
            "fieldPath": "labelKey",
            "columnName": "labelKey",
            "affinity": "TEXT",
            "notNull": true
          },
          {
            "fieldPath": "dptNb",
            "columnName": "dptNb",
            "affinity": "TEXT",
            "notNull": true
          },
          {
            "fieldPath": "dptLabel",
            "columnName": "dptLabel",
            "affinity": "TEXT",
            "notNull": true
          }
        ],
        "primaryKey": {
          "columnNames": [
            "labelAndDptNb"
          ],
          "autoGenerate": false
        },
        "indices": [
          {
            "name": "index_DepartmentKeyFigureMapRoom_labelAndDptNb",
            "unique": false,
            "columnNames": [
              "labelAndDptNb"
            ],
            "orders": [],
            "createSql": "CREATE INDEX IF NOT EXISTS `index_DepartmentKeyFigureMapRoom_labelAndDptNb` ON `${TABLE_NAME}` (`labelAndDptNb`)"
          }
        ],
        "foreignKeys": []
      },
      {
        "tableName": "KeyFigureMapSerieItemRoom",
        "createSql": "CREATE TABLE IF NOT EXISTS `${TABLE_NAME}` (`date` INTEGER NOT NULL, `value` REAL NOT NULL, `labelAndDptNb` TEXT, `id` INTEGER PRIMARY KEY AUTOINCREMENT NOT NULL, FOREIGN KEY(`labelAndDptNb`) REFERENCES `DepartmentKeyFigureMapRoom`(`labelAndDptNb`) ON UPDATE NO ACTION ON DELETE CASCADE )",
        "fields": [
          {
            "fieldPath": "date",
            "columnName": "date",
            "affinity": "INTEGER",
            "notNull": true
          },
          {
            "fieldPath": "value",
            "columnName": "value",
            "affinity": "REAL",
            "notNull": true
          },
          {
            "fieldPath": "labelAndDptNb",
            "columnName": "labelAndDptNb",
            "affinity": "TEXT",
            "notNull": false
          },
          {
            "fieldPath": "id",
            "columnName": "id",
            "affinity": "INTEGER",
            "notNull": true
          }
        ],
        "primaryKey": {
          "columnNames": [
            "id"
          ],
          "autoGenerate": true
        },
        "indices": [
          {
            "name": "index_KeyFigureMapSerieItemRoom_labelAndDptNb",
            "unique": false,
            "columnNames": [
              "labelAndDptNb"
            ],
            "orders": [],
            "createSql": "CREATE INDEX IF NOT EXISTS `index_KeyFigureMapSerieItemRoom_labelAndDptNb` ON `${TABLE_NAME}` (`labelAndDptNb`)"
          }
        ],
        "foreignKeys": [
          {
            "table": "DepartmentKeyFigureMapRoom",
            "onDelete": "CASCADE",
            "onUpdate": "NO ACTION",
            "columns": [
              "labelAndDptNb"
            ],
            "referencedColumns": [
              "labelAndDptNb"
            ]
          }
        ]
      },
      {
        "tableName": "FeaturedInfoRoom",
        "createSql": "CREATE TABLE IF NOT EXISTS `${TABLE_NAME}` (`index` INTEGER NOT NULL, `thumbnail` TEXT NOT NULL, `hd` TEXT NOT NULL, `hint` TEXT, `url` TEXT, `title` TEXT NOT NULL, `hdHeight` INTEGER, `hdWidth` INTEGER, PRIMARY KEY(`index`))",
        "fields": [
          {
            "fieldPath": "index",
            "columnName": "index",
            "affinity": "INTEGER",
            "notNull": true
          },
          {
            "fieldPath": "thumbnail",
            "columnName": "thumbnail",
            "affinity": "TEXT",
            "notNull": true
          },
          {
            "fieldPath": "hd",
            "columnName": "hd",
            "affinity": "TEXT",
            "notNull": true
          },
          {
            "fieldPath": "hint",
            "columnName": "hint",
            "affinity": "TEXT",
            "notNull": false
          },
          {
            "fieldPath": "url",
            "columnName": "url",
            "affinity": "TEXT",
            "notNull": false
          },
          {
            "fieldPath": "title",
            "columnName": "title",
            "affinity": "TEXT",
            "notNull": true
          },
          {
            "fieldPath": "hdHeight",
            "columnName": "hdHeight",
            "affinity": "INTEGER",
            "notNull": false
          },
          {
            "fieldPath": "hdWidth",
            "columnName": "hdWidth",
            "affinity": "INTEGER",
            "notNull": false
          }
        ],
        "primaryKey": {
          "columnNames": [
            "index"
          ],
          "autoGenerate": false
        },
        "indices": [],
        "foreignKeys": []
      }
    ],
    "views": [],
    "setupQueries": [
      "CREATE TABLE IF NOT EXISTS room_master_table (id INTEGER PRIMARY KEY,identity_hash TEXT)",
      "INSERT OR REPLACE INTO room_master_table (id,identity_hash) VALUES(42, '332ae95a463a3490d529ade58dbf3e1d')"
    ]
  }
}