[
	{
		"pivot":"2021-12-15",
		"rulesForAge": [
			{
				"ageMin":2080,
				"v":[
					{"doses":{"c":10,"t":10},"products":["#AR","#AZ","EU/1/21/1618","EU/1/21/1580"],"elg":184, "labelId":"2"},
					{"doses":{"c":9,"t":9},"products":["#AR","#AZ","EU/1/21/1618","EU/1/21/1580"],"elg":184, "labelId":"2"},
					{"doses":{"c":8,"t":8},"products":["#AR","#AZ","EU/1/21/1618","EU/1/21/1580"],"elg":184, "labelId":"2"},
					{"doses":{"c":7,"t":7},"products":["#AR","#AZ","EU/1/21/1618","EU/1/21/1580"],"elg":184, "labelId":"2"},
					{"doses":{"c":6,"t":6},"products":["#AR","#AZ","EU/1/21/1618","EU/1/21/1580"],"elg":184, "labelId":"2"},
					{"doses":{"c":5,"t":5},"products":["#AR","#AZ","EU/1/21/1618","EU/1/21/1580"],"elg":184, "labelId":"2"},
					{"doses":{"c":4,"t":4},"products":["#AR","#AZ","EU/1/21/1618","EU/1/21/1580"],"elg":184, "labelId":"2"},
					{"doses":{"c":3,"t":3},"products":["#AR","#AZ","EU/1/21/1618","EU/1/21/1580"],"elg":184, "labelId":"2"},
					
					{"doses":{"c":10,"t":1},"products":["#AR","#AZ","EU/1/21/1618","EU/1/21/1580"],"elg":184, "labelId":"2"},
					{"doses":{"c":9,"t":1},"products":["#AR","#AZ","EU/1/21/1618","EU/1/21/1580"],"elg":184, "labelId":"2"},
					{"doses":{"c":8,"t":1},"products":["#AR","#AZ","EU/1/21/1618","EU/1/21/1580"],"elg":184, "labelId":"2"},
					{"doses":{"c":7,"t":1},"products":["#AR","#AZ","EU/1/21/1618","EU/1/21/1580"],"elg":184, "labelId":"2"},
					{"doses":{"c":6,"t":1},"products":["#AR","#AZ","EU/1/21/1618","EU/1/21/1580"],"elg":184, "labelId":"2"},
					{"doses":{"c":5,"t":1},"products":["#AR","#AZ","EU/1/21/1618","EU/1/21/1580"],"elg":184, "labelId":"2"},
					{"doses":{"c":4,"t":1},"products":["#AR","#AZ","EU/1/21/1618","EU/1/21/1580"],"elg":184, "labelId":"2"},
					{"doses":{"c":3,"t":1},"products":["#AR","#AZ","EU/1/21/1618","EU/1/21/1580"],"elg":184, "labelId":"2"},
					{"doses":{"c":2,"t":1},"products":["#AR","#AZ","EU/1/21/1618","EU/1/21/1580"],"elg":184, "labelId":"2"},
					{"doses":{"c":2,"t":2},"products":["#AR","#AZ","EU/1/21/1618","EU/1/21/1580"],"elg":184, "labelId":"2"},
					{"doses":{"c":1,"t":1},"products":["#AR","#AZ","EU/1/21/1618","EU/1/21/1580"],"elg":184, "labelId":"2"},
					
					{"doses":{"c":2,"t":2},"products":["#JA"],"elg":184, "labelId":"2"},
					{"doses":{"c":1,"t":1},"products":["#JA"],"elg":184, "labelId":"2"}
				],
				"r":[
					{"elg":184, "labelId":"2"}
				],
				"p":[
					{"elg":184, "labelId":"2"}
				],
				"desc":"80+ : Booster 184 days after last recovery/test+. Boosters 184 days (184 days for JA) after last vaccination."
			},
			{
				"ageMin":205,
				"v":[
					{"doses":{"c":10,"t":10},"products":["#AR","#AZ","EU/1/21/1618","EU/1/21/1580"],"elg":184, "labelId":"1"},
					{"doses":{"c":9,"t":9},"products":["#AR","#AZ","EU/1/21/1618","EU/1/21/1580"],"elg":184, "labelId":"1"},
					{"doses":{"c":8,"t":8},"products":["#AR","#AZ","EU/1/21/1618","EU/1/21/1580"],"elg":184, "labelId":"1"},
					{"doses":{"c":7,"t":7},"products":["#AR","#AZ","EU/1/21/1618","EU/1/21/1580"],"elg":184, "labelId":"1"},
					{"doses":{"c":6,"t":6},"products":["#AR","#AZ","EU/1/21/1618","EU/1/21/1580"],"elg":184, "labelId":"1"},
					{"doses":{"c":5,"t":5},"products":["#AR","#AZ","EU/1/21/1618","EU/1/21/1580"],"elg":184, "labelId":"1"},
					{"doses":{"c":4,"t":4},"products":["#AR","#AZ","EU/1/21/1618","EU/1/21/1580"],"elg":184, "labelId":"1"},
					{"doses":{"c":3,"t":3},"products":["#AR","#AZ","EU/1/21/1618","EU/1/21/1580"],"elg":184, "labelId":"1"},
					
					{"doses":{"c":10,"t":1},"products":["#AR","#AZ","EU/1/21/1618","EU/1/21/1580"],"elg":184, "labelId":"1"},
					{"doses":{"c":9,"t":1},"products":["#AR","#AZ","EU/1/21/1618"],"elg":184, "labelId":"1"},
					{"doses":{"c":8,"t":1},"products":["#AR","#AZ","EU/1/21/1618","EU/1/21/1580"],"elg":184, "labelId":"1"},
					{"doses":{"c":7,"t":1},"products":["#AR","#AZ","EU/1/21/1618","EU/1/21/1580"],"elg":184, "labelId":"1"},
					{"doses":{"c":6,"t":1},"products":["#AR","#AZ","EU/1/21/1618","EU/1/21/1580"],"elg":184, "labelId":"1"},
					{"doses":{"c":5,"t":1},"products":["#AR","#AZ","EU/1/21/1618","EU/1/21/1580"],"elg":184, "labelId":"1"},
					{"doses":{"c":4,"t":1},"products":["#AR","#AZ","EU/1/21/1618","EU/1/21/1580"],"elg":184, "labelId":"1"},
					{"doses":{"c":3,"t":1},"products":["#AR","#AZ","EU/1/21/1618","EU/1/21/1580"],"elg":184, "labelId":"1"},
					{"doses":{"c":2,"t":1},"products":["#AR","#AZ","EU/1/21/1618","EU/1/21/1580"],"elg":184, "labelId":"1"},	
					
					{"doses":{"c":2,"t":2},"products":["EU/1/21/1580"],"elg":184, "labelId":"1"},
					{"doses":{"c":1,"t":1},"products":["EU/1/21/1580"],"elg":184, "labelId":"1"},
					
					{"doses":{"c":2,"t":2},"products":["#AR","#AZ","EU/1/21/1618"],"elg":184, "labelId":"1"},
					{"doses":{"c":1,"t":1},"products":["#AR","#AZ","EU/1/21/1618"],"elg":184, "labelId":"1"},
					
					{"doses":{"c":2,"t":2},"products":["#JA"],"elg":184, "labelId":"1"},
					{"doses":{"c":1,"t":1},"products":["#JA"],"elg":184, "labelId":"1"}
				],
				"r":[
					{"elg":184, "labelId":"1"}
				],
				"p":[
					{"elg":184, "labelId":"1"}
				],
				"desc":"5+ : booster 184 days after last injection/infection for some profiles only - cf labelId."
			}
		]
	}
]
