{
  "images" : [
    {
      "filename" : "Icon-24@2x.png",
      "idiom" : "watch",
      "role" : "notificationCenter",
      "scale" : "2x",
      "size" : "24x24",
      "subtype" : "38mm"
    },
    {
      "filename" : "Icon-27.5@2x.png",
      "idiom" : "watch",
      "role" : "notificationCenter",
      "scale" : "2x",
      "size" : "27.5x27.5",
      "subtype" : "42mm"
    },
    {
      "filename" : "Icon-29@2x.png",
      "idiom" : "watch",
      "role" : "companionSettings",
      "scale" : "2x",
      "size" : "29x29"
    },
    {
      "filename" : "Icon-29@3x.png",
      "idiom" : "watch",
      "role" : "companionSettings",
      "scale" : "3x",
      "size" : "29x29"
    },
    {
      "idiom" : "watch",
      "role" : "notificationCenter",
      "scale" : "2x",
      "size" : "33x33",
      "subtype" : "45mm"
    },
    {
      "filename" : "Icon-40@2x.png",
      "idiom" : "watch",
      "role" : "appLauncher",
      "scale" : "2x",
      "size" : "40x40",
      "subtype" : "38mm"
    },
    {
      "filename" : "Icon-44@2x.png",
      "idiom" : "watch",
      "role" : "appLauncher",
      "scale" : "2x",
      "size" : "44x44",
      "subtype" : "40mm"
    },
    {
      "idiom" : "watch",
      "role" : "appLauncher",
      "scale" : "2x",
      "size" : "46x46",
      "subtype" : "41mm"
    },
    {
      "filename" : "Icon-50@2x.png",
      "idiom" : "watch",
      "role" : "appLauncher",
      "scale" : "2x",
      "size" : "50x50",
      "subtype" : "44mm"
    },
    {
      "idiom" : "watch",
      "role" : "appLauncher",
      "scale" : "2x",
      "size" : "51x51",
      "subtype" : "45mm"
    },
    {
      "idiom" : "watch",
      "role" : "appLauncher",
      "scale" : "2x",
      "size" : "54x54",
      "subtype" : "49mm"
    },
    {
      "filename" : "Icon-86@2x.png",
      "idiom" : "watch",
      "role" : "quickLook",
      "scale" : "2x",
      "size" : "86x86",
      "subtype" : "38mm"
    },
    {
      "filename" : "Icon-98@2x.png",
      "idiom" : "watch",
      "role" : "quickLook",
      "scale" : "2x",
      "size" : "98x98",
      "subtype" : "42mm"
    },
    {
      "filename" : "Icon-108@2x.png",
      "idiom" : "watch",
      "role" : "quickLook",
      "scale" : "2x",
      "size" : "108x108",
      "subtype" : "44mm"
    },
    {
      "idiom" : "watch",
      "role" : "quickLook",
      "scale" : "2x",
      "size" : "117x117",
      "subtype" : "45mm"
    },
    {
      "idiom" : "watch",
      "role" : "quickLook",
      "scale" : "2x",
      "size" : "129x129",
      "subtype" : "49mm"
    },
    {
      "filename" : "iTunesArtwork@2x.png",
      "idiom" : "watch-marketing",
      "scale" : "1x",
      "size" : "1024x1024"
    }
  ],
  "info" : {
    "author" : "xcode",
    "version" : 1
  }
}
